Using characterize with tidymodels • characterize
…
library(tidymodels)
library(characterize)
tidymodels_prefer()
theme_set(theme_bw())

set.seed(4005)
sim_train <- 
  sim_regression(1000, method = "hooker_2004") %>% 
  bind_cols(sim_noise(1000, 50))

sim_train

## # A tibble: 1,000 × 61
##    outcome predictor_01 predictor_02 predictor_03 predictor_04 predictor_05
##      <dbl>        <dbl>        <dbl>        <dbl>        <dbl>        <dbl>
##  1  -1.77        0.413        0.328        0.0226        0.633        0.837
##  2  -1.02        0.850        0.261        0.129         0.956        0.693
##  3  -1.21        0.701        0.482        0.0332        0.834        0.727
##  4  -0.608       0.129        0.226        0.685         0.833        0.755
##  5   1.10        0.0378       0.205        1.00          0.698        0.989
##  6   0.518       0.722        0.137        0.942         0.748        0.655
##  7   0.816       0.0379       0.0820       0.831         0.679        0.865
##  8   2.74        0.762        0.991        0.937         0.690        0.634
##  9  -0.143       0.825        0.195        0.443         0.942        0.694
## 10  -1.82        0.671        0.333        0.226         0.949        0.915
## # ℹ 990 more rows
## # ℹ 55 more variables: predictor_06 <dbl>, predictor_07 <dbl>,
## #   predictor_08 <dbl>, predictor_09 <dbl>, predictor_10 <dbl>, noise_01 <dbl>,
## #   noise_02 <dbl>, noise_03 <dbl>, noise_04 <dbl>, noise_05 <dbl>,
## #   noise_06 <dbl>, noise_07 <dbl>, noise_08 <dbl>, noise_09 <dbl>,
## #   noise_10 <dbl>, noise_11 <dbl>, noise_12 <dbl>, noise_13 <dbl>,
## #   noise_14 <dbl>, noise_15 <dbl>, noise_16 <dbl>, noise_17 <dbl>, …
…
Before you open the help files for tidyr::unnest(), or
stop reading, there is a helper function that will put the results in a
usable format:

model_char <- collect_characteristics(cart_res)
model_char

## # A tibble: 60 × 7
##    cost_complexity .metric             .estimator  mean     n std_err .config   
##              <dbl> <chr>               <chr>      <dbl> <int>   <dbl> <chr>     
##  1        0.0001   num_features_active model       28.8    10   0.892 Preproces…
##  2        0.0001   num_features_input  model       60      10   0     Preproces…
##  3        0.0001   num_term_nodes      model       74.6    10   0.653 Preproces…
##  4        0.000144 num_features_active model       28.8    10   0.892 Preproces…
##  5        0.000144 num_features_input  model       60      10   0     Preproces…
##  6        0.000144 num_term_nodes      model       74.6    10   0.653 Preproces…
##  7        0.000207 num_features_active model       28.8    10   0.892 Preproces…
##  8        0.000207 num_features_input  model       60      10   0     Preproces…
##  9        0.000207 num_term_nodes      model       74.6    10   0.653 Preproces…
## 10        0.000298 num_features_active model       28.8    10   0.892 Preproces…
## # ℹ 50 more rows
…
That great but you probably want to know how these characteristics
relate to model performance. Another option,
add_metrics = TRUE will also collect the performance
metrics (RMSE and R2) are row-bound to the previous
results.

metric_and_char <- collect_characteristics(cart_res, add_metrics = TRUE)
metric_and_char

## # A tibble: 100 × 7
##    cost_complexity .metric             .estimator   mean     n std_err .config  
##              <dbl> <chr>               <chr>       <dbl> <int>   <dbl> <chr>    
##  1        0.0001   num_features_active model      28.8      10  0.892  Preproce…
##  2        0.0001   num_features_input  model      60        10  0      Preproce…
##  3        0.0001   num_term_nodes      model      74.6      10  0.653  Preproce…
##  4        0.0001   rmse                standard    0.581    10  0.0136 Preproce…
##  5        0.0001   rsq                 standard    0.659    10  0.0205 Preproce…
##  6        0.000144 num_features_active model      28.8      10  0.892  Preproce…
##  7        0.000144 num_features_input  model      60        10  0      Preproce…
##  8        0.000144 num_term_nodes      model      74.6      10  0.653  Preproce…
##  9        0.000144 rmse                standard    0.581    10  0.0136 Preproce…
## 10        0.000144 rsq                 standard    0.659    10  0.0205 Preproce…
## # ℹ 90 more rows
…
